…
``` r
(plottable <- merged %>%
  mutate(name = gsub(".fna.ori.out", "", name)) %>%
  group_by(name) %>%
  filter(pdiv == min(pdiv), !(str_detect(name, "Drosophila")), !(str_detect(name, "TOM008"))) %>%
  filter(match_len == max(match_len)) %>%
  arrange(desc(match_len)) %>%
  ungroup())
```

    ## # A tibble: 1,245 × 7
    ##    name                   contig        qstart     qend match_len  pdiv strand
    ##    <chr>                  <chr>          <dbl>    <dbl>     <dbl> <dbl> <chr> 
    ##  1 Tinea_semifulvella     OU342608.1   8251834  8253765      1931  33.3 +     
    ##  2 Meganola_albula        OW388147.1   7213872  7215657      1785  29.4 +     
    ##  3 Eupithecia_vulgata     OX297867.1  15961303 15962874      1571  28.8 C     
    ##  4 Dascillus_cervinus     OX458323.1   4290730  4292267      1537  28.8 C     
    ##  5 Ennomos_fuscantarius   HG992034.1   3818880  3820313      1433  30.7 C     
    ##  6 Rhopalosiphum_padi     NC_083598.1 16478192 16479609      1417  32.1 +     
    ##  7 Heliconius_charithonia CM060828.1   6370250  6371666      1416  29.8 +     
    ##  8 Petrophora_chlorosata  OX621215.1   1385253  1386624      1371  26.7 C     
    ##  9 Micropterix_aruncella  OX155968.1   2937335  2938647      1312  31.6 +     
    ## 10 Malthinus_flaveolus    OX467285.1  91004657 91005954      1297  30.6 +     
    ## # ℹ 1,235 more rows
…
