…
    ## 
    ## ── Column specification ────────────────────────────────────────────────────────
    ## cols(
    ##   insertion = col_character(),
    ##   position = col_double(),
    ##   base = col_character()
    ## )

    ## # A tibble: 116,712 × 4
    ##    insertion                                         position base  insertion_id
    ##    <chr>                                                <dbl> <chr> <chr>       
    ##  1 27e9db99-9b8f-4760-a8fc-b997844d014c:17875-26717…        1 G     27          
    ##  2 27e9db99-9b8f-4760-a8fc-b997844d014c:17875-26717…        2 A     27          
    ##  3 27e9db99-9b8f-4760-a8fc-b997844d014c:17875-26717…        3 A     27          
    ##  4 27e9db99-9b8f-4760-a8fc-b997844d014c:17875-26717…        4 T     27          
    ##  5 27e9db99-9b8f-4760-a8fc-b997844d014c:17875-26717…        5 G     27          
    ##  6 27e9db99-9b8f-4760-a8fc-b997844d014c:17875-26717…        6 T     27          
    ##  7 27e9db99-9b8f-4760-a8fc-b997844d014c:17875-26717…        7 G     27          
    ##  8 27e9db99-9b8f-4760-a8fc-b997844d014c:17875-26717…        8 G     27          
    ##  9 27e9db99-9b8f-4760-a8fc-b997844d014c:17875-26717…        9 T     27          
    ## 10 27e9db99-9b8f-4760-a8fc-b997844d014c:17875-26717…       10 T     27          
    ## # ℹ 116,702 more rows
…
    ## Rows: 9468976 Columns: 21
    ## ── Column specification ────────────────────────────────────────────────────────
    ## Delimiter: "\t"
    ## chr  (4): TEfam, sample_id, refbase, sample
    ## dbl (10): pos, A, C, G, T, cov, phys_cov, hq_cov, trunc_left, trunc_right
    ## lgl  (7): snp, refsnp, int_del, int_del_freq, ins, delet, annotation
    ## 
    ## ℹ Use `spec()` to retrieve the full column specification for this data.
    ## ℹ Specify the column types or set `show_col_types = FALSE` to quiet this message.

    ## # A tibble: 9,468,976 × 21
    ##    TEfam  sample_id    pos refbase     A     C     G     T   cov phys_cov hq_cov
    ##    <chr>  <chr>      <dbl> <chr>   <dbl> <dbl> <dbl> <dbl> <dbl>    <dbl>  <dbl>
    ##  1 Kuruka Conocotoc…     0 G           0     0     0     0     0        0      0
    ##  2 Kuruka Conocotoc…     1 A           0     0     0     0     0        0      0
    ##  3 Kuruka Conocotoc…     2 A           0     0     0     0     0        0      0
    ##  4 Kuruka Conocotoc…     3 T           0     0     0     0     0        0      0
    ##  5 Kuruka Conocotoc…     4 G           0     0     0     0     0        0      0
    ##  6 Kuruka Conocotoc…     5 T           0     0     0     0     0        0      0
    ##  7 Kuruka Conocotoc…     6 G           0     0     0     0     0        0      0
    ##  8 Kuruka Conocotoc…     7 G           0     0     0     0     0        0      0
    ##  9 Kuruka Conocotoc…     8 T           0     0     0     0     0        0      0
    ## 10 Kuruka Conocotoc…     9 T           0     0     0     0     0        0      0
    ## # ℹ 9,468,966 more rows
    ## # ℹ 10 more variables: snp <lgl>, refsnp <lgl>, int_del <lgl>,
    ## #   int_del_freq <lgl>, trunc_left <dbl>, trunc_right <dbl>, ins <lgl>,
    ## #   delet <lgl>, annotation <lgl>, sample <chr>
…
