…
(merged <- defragmented %>%
  mutate(
    qend = ifelse(to_merge, coalesce(lead(qend), qend), qend),  # Avoids NA issues in last row
    pdiv = ifelse(to_merge, (pdiv/100) * (match_len/(qend-qstart)) + (lead(pdiv)/100) * (lead(match_len)/(qend-qstart)), pdiv),
    match_len = qend-qstart,
    pdiv = pdiv * 100) %>%
  filter(to_merge == TRUE) %>%
  select(sample, contig, qstart, qend, match_len, pdiv, strand) %>%
  mutate(name = case_when(sample == "GCA_018904525.1_ASM1890452v1_genomic.fna.ori.out" ~ "GCA_018904525.1", sample == "GCF_000005135.1_dere_caf1_genomic.fna.ori.out" ~ "GCF_000005135.1", sample == "GCF_003286155.1_DereRS2_genomic.fna.ori.out" ~ "GCF_003286155.1", sample == "derecta.contigs.fna.ori.out" ~ "Sarah's")))
```

    ## # A tibble: 691 × 8
    ##    sample                      contig qstart   qend match_len  pdiv strand name 
    ##    <chr>                       <chr>   <dbl>  <dbl>     <dbl> <dbl> <chr>  <chr>
    ##  1 GCA_018904525.1_ASM1890452… JAEIG… 5.92e5 5.93e5       946  28.7 +      GCA_…
    ##  2 GCA_018904525.1_ASM1890452… JAEIG… 1.16e6 1.16e6      1035  27.2 +      GCA_…
    ##  3 GCA_018904525.1_ASM1890452… JAEIG… 1.34e6 1.34e6       961  33.2 +      GCA_…
    ##  4 GCA_018904525.1_ASM1890452… JAEIG… 3.01e5 3.02e5       516  26.3 +      GCA_…
    ##  5 GCA_018904525.1_ASM1890452… JAEIG… 9.74e5 9.75e5      1042  32.2 +      GCA_…
    ##  6 GCA_018904525.1_ASM1890452… JAEIG… 3.06e4 3.13e4       778  30.0 +      GCA_…
    ##  7 GCA_018904525.1_ASM1890452… JAEIG… 1.68e5 1.68e5       534  27.8 +      GCA_…
    ##  8 GCA_018904525.1_ASM1890452… JAEIG… 1.68e5 1.69e5       480  18.0 +      GCA_…
    ##  9 GCA_018904525.1_ASM1890452… JAEIG… 1.69e5 1.69e5       625  22.7 +      GCA_…
    ## 10 GCA_018904525.1_ASM1890452… JAEIG… 2.67e5 2.68e5       803  28.8 C      GCA_…
    ## # ℹ 681 more rows
…
