…
``` r
(cn <- read_tsv("/Volumes/Storage/mining/GenomeDelta2.0/OUTPUT/dmel-validation/copynumber.tsv") %>% mutate(sample = gsub("/Volumes/Storage/mining/GenomeDelta2.0/OUTPUT/dmel-validation/copynumber/", "", sample), sample = gsub(".fastq.sort.tsv", "", sample)) %>% inner_join(metadata, by="sample") %>% arrange(desc(copynumber)) %>% filter(str_detect(name, "cluster"))) #%>% filter(study_id!="Shpak2023, sample!="SRR1525770", sample!="SRR14306821"))
```

    ## Rows: 223660 Columns: 6
    ## ── Column specification ────────────────────────────────────────────────────────
    ## Delimiter: "\t"
    ## chr (3): sample, type, name
    ## dbl (3): len, raw, copynumber
    ## 
    ## ℹ Use `spec()` to retrieve the full column specification for this data.
    ## ℹ Specify the column types or set `show_col_types = FALSE` to quiet this message.

    ## # A tibble: 65,520 × 14
    ##    sample  type  name    len    raw copynumber strain publication study study_id
    ##    <chr>   <chr> <chr> <dbl>  <dbl>      <dbl> <chr>  <chr>       <chr> <chr>   
    ##  1 SRR238… te    clus…  2791 6.78e6     50196. H6     https://do… PRJN… Shpak20…
    ##  2 SRR238… te    clus…  2791 3.37e7     36571. H5     https://do… PRJN… Shpak20…
    ##  3 SRR238… te    clus…  2791 6.26e6     24517. H3     https://do… PRJN… Shpak20…
    ##  4 SRR238… te    clus…  2791 2.59e6     23427. H2     https://do… PRJN… Shpak20…
    ##  5 SRR238… te    clus…  2791 6.10e6     17356. H4     https://do… PRJN… Shpak20…
    ##  6 SRR238… te    clus…  2791 9.97e6     17005. H7     https://do… PRJN… Shpak20…
    ##  7 SRR238… te    clus…  2791 6.59e6     15261. H12    https://do… PRJN… Shpak20…
    ##  8 SRR238… te    clus…  2791 5.56e6     13425. H16    https://do… PRJN… Shpak20…
    ##  9 SRR238… te    clus…  2791 4.54e6     11359. H13    https://do… PRJN… Shpak20…
    ## 10 SRR238… te    clus…  2791 6.59e6     10919. H21    https://do… PRJN… Shpak20…
    ## # ℹ 65,510 more rows
    ## # ℹ 4 more variables: year <dbl>, location <chr>, lat <dbl>, lon <dbl>
…
    ## Warning: Removed 2 rows containing missing values or values outside the scale range
    ## (`geom_point()`).

    ## Warning in geom_map(data = world_map, map = world_map, aes(long, lat, map_id =
    ## region), : Ignoring unknown aesthetics: x and y

    ## Warning: Removed 2 rows containing missing values or values outside the scale range
    ## (`geom_point()`).

``` r
(c8 <- cn %>% filter(name == "cluster_n8-1seqs_cluster_n190-407seqs_SRR23105313-unique.fasta_NODE_6_length_7834_cov_780.005286") %>% mutate(period = case_when(year<2010 ~ "<2010", year>=2010 & year<2017 ~ "2010-2017", TRUE ~ "2017-2020")) %>% arrange(desc(copynumber)))
```

    ## # A tibble: 840 × 15
    ##    sample  type  name    len    raw copynumber strain publication study study_id
    ##    <chr>   <chr> <chr> <dbl>  <dbl>      <dbl> <chr>  <chr>       <chr> <chr>   
    ##  1 SRR231… te    clus…  7834 1.09e5       51.5 mel33  https://do… PRJN… Chen2024
    ##  2 SRR231… te    clus…  7834 1.05e5       47.1 mel21  https://do… PRJN… Chen2024
    ##  3 SRR231… te    clus…  7834 1.04e5       46.7 mel67  https://do… PRJN… Chen2024
    ##  4 SRR231… te    clus…  7834 1.01e5       44.7 mel88  https://do… PRJN… Chen2024
    ##  5 SRR231… te    clus…  7834 9.03e4       43.3 mel65  https://do… PRJN… Chen2024
    ##  6 SRR231… te    clus…  7834 9.38e4       43.3 mel197 https://do… PRJN… Chen2024
    ##  7 SRR231… te    clus…  7834 8.83e4       39.5 mel217 https://do… PRJN… Chen2024
    ##  8 SRR231… te    clus…  7834 4.14e4       39.3 mel62  https://do… PRJN… Chen2024
    ##  9 SRR231… te    clus…  7834 8.72e4       38.2 mel66  https://do… PRJN… Chen2024
    ## 10 SRR231… te    clus…  7834 8.78e4       37.3 mel37  https://do… PRJN… Chen2024
    ## # ℹ 830 more rows
    ## # ℹ 5 more variables: year <dbl>, location <chr>, lat <dbl>, lon <dbl>,
    ## #   period <chr>
…
``` r
africa_map <- world_map %>% filter(lat > -45 & lat < 40, long > -20 & long < 55)
(c8_africa <- c8 %>% filter(lat > -45 & lat < 40, lon > -20 & lon < 55))
```

    ## # A tibble: 156 × 15
    ##    sample  type  name    len    raw copynumber strain publication study study_id
    ##    <chr>   <chr> <chr> <dbl>  <dbl>      <dbl> <chr>  <chr>       <chr> <chr>   
    ##  1 SRR306… te    clus…  7834 2.00e5     35.3   UM118… https://do… PRJN… Pool2012
    ##  2 SRR306… te    clus…  7834 9.63e4     13.9   UM37_… https://do… PRJN… Pool2012
    ##  3 SRR306… te    clus…  7834 5.66e4      9.33  UM526… https://do… PRJN… Pool2012
    ##  4 SRR189… te    clus…  7834 6.08e3      2.37  CK1_1… https://do… PRJN… Pool2012
    ##  5 SRR189… te    clus…  7834 2.15e3      1.33  ED5N_… https://do… PRJN… Pool2012
    ##  6 SRR189… te    clus…  7834 2.81e3      1.14  KR4N_… https://do… PRJN… Pool2012
    ##  7 SRR189… te    clus…  7834 2.06e3      1.08  RC5_1… https://do… PRJN… Pool2012
    ##  8 SRR189… te    clus…  7834 4.22e3      1.06  GA141… https://do… PRJN… Pool2012
    ##  9 SRR306… te    clus…  7834 2.19e3      1.02  SP188… https://do… PRJN… Pool2012
    ## 10 SRR306… te    clus…  7834 1.90e3      0.995 SP173… https://do… PRJN… Pool2012
    ## # ℹ 146 more rows
    ## # ℹ 5 more variables: year <dbl>, location <chr>, lat <dbl>, lon <dbl>,
    ## #   period <chr>
…
